{
  "apps": [
    {
      "serverURL": "http://localhost:8080/api",
      "appId": "8rRIZo9dfTmTQ76ZZ8WHmoNejWiAEMJ7y7Bq6531ZpOD5mR9NSXrAm9mBF2lb76O",
      "masterKey": "p+PKpCjHQMXPW3X+Bja47GP34g38YH9uXc0t85kFwxBVzFlHZPgrh/XrYlleJdE1DIqvd0mQzL1vZuxTdfxjwor2Lgz1Rz5uan7f8y2alxk+NPWM2Q5gkqOoBkWu2O2bQEN8moTI2qL+WR3h1BbGo/8hKE9pDpfP34wppCrgBlM=",
      "appName": "Moverifft"
    }
  ]
}